Introducción a la Ciencia de Datos en R - CPS
…
Gather

gather() es la función opuesta, nos permite revertir el resultado (o la podemos aplicar directamente, depende de cómo estén estructurandos nuestros datos)

datos_gather <- datos_spread %>%  
  gather(.,       
   key   = nombre_autopista,   #variable que toma los nombres de las columnas 
   value = total,  #variable que toma los valores de las columnas
   2:5)             #le indico que columnas juntar 

datos_gather

## # A tibble: 32 x 3
##    mes   nombre_autopista    total
##    <chr> <chr>               <int>
##  1 01    AU 4  Lugones    12784136
##  2 02    AU 4  Lugones    14863872
##  3 03    AU 4  Lugones    14284135
##  4 04    AU 4  Lugones    14691879
##  5 05    AU 4  Lugones    17640900
##  6 06    AU 4  Lugones    17120818
##  7 07    AU 4  Lugones    16671836
##  8 08    AU 4  Lugones    19984427
##  9 01    AU 5 Cantilo      7798419
## 10 02    AU 5 Cantilo      9305973
## # ... with 22 more rows
…
